id;question_title;question_description;quiz_id
1;Industrial;connect Markets Chief;9
2;capacitor archive;sky blue Tasty Plastic Pizza;9
3;compress South Georgia and the South Sandwich Islands;compelling mission-critical;9
4;bifurcated scalable;Small;9
5;deliverables reinvent 24 hour;overriding;9
6;monitor 1080p Checking Account;world-class Frozen IB;9
7;Highway Ergonomic;moratorium moratorium;9
8;New York tangible Mississippi;Frozen bus;9
9;hard drive Robust Networked;Poland;9
10;Small partnerships;Outdoors;9
11;How do you make a loop?;what is the algorithm to make a loop throw a list or array?;11
12;How do you make a choose algorithm?;what is the statment to begin a choosing algorithm;11
13;Whats the youtube channel name of Vasconcelos?;just say the god damn name...;11
15;What´s the website URL?;what is the main URL from ReadinessIT website?;1
16;Which office is the first picture from?;the first picture is from one of the offices in Portugal.;1
17;One of our customers & partners is...;one of those companies has a partnership with us, wich one?;1
18; Omnichannel Platform is...;what is  Omnichannel Platform ?;1
19;State 2 countries where we are settled and working in.;We have business in multiple countries, two of those are...;1
20;Which of those is one of our clients?;in midth of those one is our client, can you guess?;1
21;What's the real certification we have?;one of those is real, all the others are fake...;1
22;Whats our mission?;we have a mission as a company, can you tell it?;1
23;Whats system ninjas?;We have a project called system ninjas, what is it?;1
24;What are our colors?;We have two main colors in our company, what are those?;1
25;question number 1;detailing this question removing ambiguous interpretation;2
26;question number 2;another datailed information;2
27;question number 3;lorem ipsum this time?;2
28;question number 4;a very long and detailed information just to occupy some more space;2
29;question number 5;a very long and detailed information just to occupy some more space;2
30;question number 6;detailing this question removing ambiguous interpretation;2
31;question number 7;another datailed information;2
32;question number 8;lorem ipsum this time?;2
33;question number 9;a very long and detailed information just to occupy some more space;2
34;question number 10;detailing this question removing ambiguous interpretation;2
35;question number 1;detailing this question removing ambiguous interpretation;3
36;question number 2;another datailed information;3
37;question number 3;lorem ipsum this time?;3
38;question number 4;a very long and detailed information just to occupy some more space;3
39;question number 5;a very long and detailed information just to occupy some more space;3
40;question number 6;detailing this question removing ambiguous interpretation;3
41;question number 7;another datailed information;3
42;question number 8;lorem ipsum this time?;3
43;question number 9;a very long and detailed information just to occupy some more space;3
44;question number 10;detailing this question removing ambiguous interpretation;3
45;question number 1;detailing this question removing ambiguous interpretation;4
46;question number 2;another datailed information;4
47;question number 3;lorem ipsum this time?;4
48;question number 4;a very long and detailed information just to occupy some more space;4
49;question number 5;a very long and detailed information just to occupy some more space;4
50;question number 6;detailing this question removing ambiguous interpretation;4
51;question number 7;another datailed information;4
52;question number 8;lorem ipsum this time?;4
53;question number 9;a very long and detailed information just to occupy some more space;4
54;question number 10;detailing this question removing ambiguous interpretation;4
55;question number 1;detailing this question removing ambiguous interpretation;5
56;question number 2;another datailed information;5
57;question number 3;lorem ipsum this time?;5
58;question number 4;a very long and detailed information just to occupy some more space;5
59;question number 5;a very long and detailed information just to occupy some more space;5
60;question number 6;detailing this question removing ambiguous interpretation;5
61;question number 7;another datailed information;5
62;question number 8;lorem ipsum this time?;5
63;question number 9;a very long and detailed information just to occupy some more space;5
64;question number 10;detailing this question removing ambiguous interpretation;5
65;question number 1;detailing this question removing ambiguous interpretation;6
66;question number 2;another datailed information;6
67;question number 3;lorem ipsum this time?;6
68;question number 4;a very long and detailed information just to occupy some more space;6
69;question number 5;a very long and detailed information just to occupy some more space;6
70;question number 6;detailing this question removing ambiguous interpretation;6
71;question number 7;another datailed information;6
72;question number 8;lorem ipsum this time?;6
73;question number 9;a very long and detailed information just to occupy some more space;6
74;question number 10;detailing this question removing ambiguous interpretation;6
75;question number 1;detailing this question removing ambiguous interpretation;7
76;question number 2;another datailed information;7
77;question number 3;lorem ipsum this time?;7
78;question number 4;a very long and detailed information just to occupy some more space;7
79;question number 5;a very long and detailed information just to occupy some more space;7
80;question number 6;detailing this question removing ambiguous interpretation;7
81;question number 7;another datailed information;7
82;question number 8;lorem ipsum this time?;7
83;question number 9;a very long and detailed information just to occupy some more space;7
84;question number 10;detailing this question removing ambiguous interpretation;7
85;question number 1;detailing this question removing ambiguous interpretation;8
86;question number 2;another datailed information;8
87;question number 3;lorem ipsum this time?;8
88;question number 4;a very long and detailed information just to occupy some more space;8
89;question number 5;a very long and detailed information just to occupy some more space;8
90;question number 6;detailing this question removing ambiguous interpretation;8
91;question number 7;another datailed information;8
92;question number 8;lorem ipsum this time?;8
93;question number 9;a very long and detailed information just to occupy some more space;8
94;question number 10;detailing this question removing ambiguous interpretation;8
95;question number 1;detailing this question removing ambiguous interpretation;10
96;question number 2;another datailed information;10
97;question number 3;lorem ipsum this time?;10
98;question number 4;a very long and detailed information just to occupy some more space;10
99;question number 5;a very long and detailed information just to occupy some more space;10
100;question number 6;detailing this question removing ambiguous interpretation;10
101;question number 7;another datailed information;10
102;question number 8;lorem ipsum this time?;10
103;question number 9;a very long and detailed information just to occupy some more space;10
104;question number 10;detailing this question removing ambiguous interpretation;10
105;question number 1;detailing this question removing ambiguous interpretation;12
106;question number 2;another datailed information;12
107;question number 3;lorem ipsum this time?;12
108;question number 4;a very long and detailed information just to occupy some more space;12
109;question number 5;a very long and detailed information just to occupy some more space;12
110;question number 6;detailing this question removing ambiguous interpretation;12
111;question number 7;another datailed information;12
112;question number 8;lorem ipsum this time?;12
113;question number 9;a very long and detailed information just to occupy some more space;12
114;question number 10;detailing this question removing ambiguous interpretation;12
115;question number 1;detailing this question removing ambiguous interpretation;13
116;question number 2;another datailed information;13
117;question number 3;lorem ipsum this time?;13
118;question number 4;a very long and detailed information just to occupy some more space;13
119;question number 5;a very long and detailed information just to occupy some more space;13
120;question number 6;detailing this question removing ambiguous interpretation;13
121;question number 7;another datailed information;13
122;question number 8;lorem ipsum this time?;13
123;question number 9;a very long and detailed information just to occupy some more space;13
124;question number 10;detailing this question removing ambiguous interpretation;13
125;question number 1;detailing this question removing ambiguous interpretation;14
126;question number 2;another datailed information;14
127;question number 3;lorem ipsum this time?;14
128;question number 4;a very long and detailed information just to occupy some more space;14
129;question number 5;a very long and detailed information just to occupy some more space;14
130;question number 6;detailing this question removing ambiguous interpretation;14
131;question number 7;another datailed information;14
132;question number 8;lorem ipsum this time?;14
133;question number 9;a very long and detailed information just to occupy some more space;14
134;question number 10;detailing this question removing ambiguous interpretation;14
135;question number 1;detailing this question removing ambiguous interpretation;15
155;question number 1;detailing this question removing ambiguous interpretation;17
156;question number 2;another datailed information;17
157;question number 3;lorem ipsum this time?;17
158;question number 4;a very long and detailed information just to occupy some more space;17
159;question number 5;a very long and detailed information just to occupy some more space;17
160;question number 6;detailing this question removing ambiguous interpretation;17
161;question number 7;another datailed information;17
162;question number 8;lorem ipsum this time?;17
163;question number 9;a very long and detailed information just to occupy some more space;17
164;question number 10;detailing this question removing ambiguous interpretation;17
165;question number 4;a very long and detailed information just to occupy some more space;11
166;question number 5;a very long and detailed information just to occupy some more space;11
167;question number 6;detailing this question removing ambiguous interpretation;11
168;question number 7;another datailed information;11
169;question number 8;lorem ipsum this time?;11
170;question number 9;a very long and detailed information just to occupy some more space;11
171;question number 10;detailing this question removing ambiguous interpretation;11
