id;question_title;question_description
1;Music;Nakfa
2;Bahamian Dollar Investment Account;Games Regional Digitized
3;copy convergence;Mayotte
4;Industrial;connect Markets Chief
5;capacitor archive;sky blue Tasty Plastic Pizza
6;compress South Georgia and the South Sandwich Islands;compelling mission-critical
7;bifurcated scalable;Small
8;deliverables reinvent 24 hour;overriding
9;monitor 1080p Checking Account;world-class Frozen IB
10;Highway Ergonomic;moratorium moratorium
