id;quiz_name;min_grade;avg_grade
1;mobile Fish;77969;59865
2;Table Computer;5808;45924
3;seamless Metal deposit;5641;96990
4;parsing red Chips;18340;61748
5;Home Loan Account;706;43194
6;intangible;61185;39986
7;Gorgeous Frozen Pants;23277;45606
8;bluetooth;19967;38246
9;Planner Canyon;85994;60754
10;Table Small Frozen Sausages Planner;80839;38541
