{
    "name": "Question",
    "fields": [
        {
            "fieldName": "questionTitle",
            "fieldType": "String"
        },
        {
            "fieldName": "questionDescription",
            "fieldType": "String"
        }
    ],
    "relationships": [
        {
            "relationshipType": "one-to-many",
            "otherEntityName": "answer",
            "otherEntityRelationshipName": "question",
            "relationshipName": "answer"
        },
        {
            "relationshipType": "many-to-one",
            "otherEntityName": "quiz",
            "otherEntityRelationshipName": "question",
            "relationshipName": "quiz",
            "otherEntityField": "id"
        }
    ],
    "changelogDate": "20191113145519",
    "entityTableName": "question",
    "dto": "no",
    "pagination": "infinite-scroll",
    "service": "no",
    "jpaMetamodelFiltering": false,
    "fluentMethods": true,
    "readOnly": false,
    "clientRootFolder": "",
    "applications": "*"
}