{
    "name": "Subject",
    "fields": [
        {
            "fieldName": "subjectName",
            "fieldType": "String"
        }
    ],
    "relationships": [],
    "changelogDate": "20191113145518",
    "entityTableName": "subject",
    "dto": "no",
    "pagination": "no",
    "service": "no",
    "jpaMetamodelFiltering": false,
    "fluentMethods": true,
    "readOnly": false,
    "clientRootFolder": "",
    "applications": "*"
}